1) test0

2) 
	test0 
	zero

3) tab1

4) zero 	PASSED
	0 - 

5) tab - 	failed
		 

6) tab - 	PASSED

7) spacetab

9) st1

10) st2 --> PASSED

11) st3 --> PASSED

12) st4 -- PASSED

13) spacetab

14) Master - PASSED 6/9 in release test
	zero
	test0
	tab1
	st[1-4]

15) spacetab - PASSED

16) nonum - FAILED
	just a sentence 
	3 just a sentencee

17) new zero - PASSED

18) nonum - PASSED
	just a sentense 
	[null]

19) zero with -1 PASSED

20) zero with - Failed
	-1 [blank]
	[blank]

21) null (NOTHING)  PASSED

22) zero with 
	-1 [blank]
	0 [blank]





